<svg version="1.1" xmlns="http://www.w3.org/2000/svg" viewBox="0 0 959.362074625343 365" width="2878.086223876029" height="1095">
  <!-- svg-source:excalidraw -->
  
  <defs>
    <style class="style-fonts">
      @font-face {
        font-family: "Virgil";
        src: url("https://excalidraw.com/Virgil.woff2");
      }
      @font-face {
        font-family: "Cascadia";
        src: url("https://excalidraw.com/Cascadia.woff2");
      }
    </style>
  </defs>
  <g stroke-linecap="round" transform="translate(330 10) rotate(0 60 40)"><path d="M20 0 M20 0 C43.83 1.32, 65.43 0.48, 100 0 M20 0 C49.3 -0.86, 79.91 0.46, 100 0 M100 0 C114.65 0.01, 118.75 5.74, 120 20 M100 0 C111.7 -2.12, 120.63 8.89, 120 20 M120 20 C121.02 35.92, 121.81 51.63, 120 60 M120 20 C120.34 30.49, 120.47 40.27, 120 60 M120 60 C119.57 74.46, 113.47 78.44, 100 80 M120 60 C121.95 75.22, 112.97 80.56, 100 80 M100 80 C70.25 79.95, 44.35 80.64, 20 80 M100 80 C69.19 79.4, 38.93 78.54, 20 80 M20 80 C5.01 78.83, 1.13 75.12, 0 60 M20 80 C8.3 78.69, 2.06 74.93, 0 60 M0 60 C1.64 50.87, 1.39 40.63, 0 20 M0 60 C0.84 48.28, 0.79 37.72, 0 20 M0 20 C1.18 5.39, 5.26 0.17, 20 0 M0 20 C-1.86 6.46, 8.76 -1.04, 20 0" stroke="#2dcd4d" stroke-width="2" fill="none"></path></g><g transform="translate(351.23749923706055 37.5) rotate(0 38.76250076293945 12.5)"><text x="38.76250076293945" y="0" font-family="Virgil, Segoe UI Emoji" font-size="20px" fill="#2dcd4d" text-anchor="middle" style="white-space: pre;" direction="ltr" dominant-baseline="text-before-edge">Program</text></g><g stroke-linecap="round"><g transform="translate(230.98887644982597 53.40848381298997) rotate(0 48.64100667555965 -2.004748668626803)"><path d="M0.61 -0.32 C16.94 -0.98, 81.57 -3.35, 97.81 -3.69 M-0.53 -1.53 C15.65 -2.1, 80.45 -2.79, 96.76 -2.68" stroke="#2dcd4d" stroke-width="2" fill="none"></path></g><g transform="translate(230.98887644982597 53.40848381298997) rotate(0 48.64100667555965 -2.004748668626803)"><path d="M68.07 7.35 C74.89 4.68, 85.07 2.42, 98.45 -0.97 M69.08 6.88 C73.89 4.83, 81.41 4.06, 97.46 -3.25" stroke="#2dcd4d" stroke-width="2" fill="none"></path></g><g transform="translate(230.98887644982597 53.40848381298997) rotate(0 48.64100667555965 -2.004748668626803)"><path d="M68 -13.17 C74.89 -10.01, 85.08 -6.44, 98.45 -0.97 M69.01 -13.64 C73.83 -11.23, 81.36 -7.55, 97.46 -3.25" stroke="#2dcd4d" stroke-width="2" fill="none"></path></g></g><mask></mask><g stroke-linecap="round"><g transform="translate(451.0055920843687 53.17044604530872) rotate(0 49.44562073634006 -0.7629753031923201)"><path d="M0.3 -0.64 C16.83 -1, 83.23 -1.14, 99.9 -1.22 M-1.01 1.64 C15.35 0.82, 82.35 -2.36, 99.17 -3.17" stroke="#2dcd4d" stroke-width="2" fill="none"></path></g><g transform="translate(451.0055920843687 53.17044604530872) rotate(0 49.44562073634006 -0.7629753031923201)"><path d="M70.44 9.13 C81.8 5.58, 91.86 0.13, 97.31 -3.3 M71.56 8.99 C80.7 4.66, 87.3 1.71, 99.66 -3.75" stroke="#2dcd4d" stroke-width="2" fill="none"></path></g><g transform="translate(451.0055920843687 53.17044604530872) rotate(0 49.44562073634006 -0.7629753031923201)"><path d="M69.46 -11.37 C81.33 -7.63, 91.74 -5.78, 97.31 -3.3 M70.58 -11.51 C80.12 -9.66, 87.02 -6.44, 99.66 -3.75" stroke="#2dcd4d" stroke-width="2" fill="none"></path></g></g><mask></mask><g stroke-linecap="round" transform="translate(130 10) rotate(0 50 42.5)"><path d="M41.27 0.78 C49.54 -0.78, 61.04 1.02, 69.31 3.94 C77.58 6.87, 85.88 12.18, 90.91 18.32 C95.95 24.47, 99.43 33.16, 99.53 40.83 C99.64 48.5, 96.33 57.77, 91.57 64.36 C86.8 70.95, 78.85 76.85, 70.95 80.35 C63.06 83.85, 53.02 86.26, 44.19 85.36 C35.35 84.45, 24.96 80.12, 17.93 74.93 C10.89 69.74, 4.56 61.5, 1.97 54.23 C-0.62 46.96, 0.09 38.46, 2.38 31.32 C4.66 24.18, 7.87 16.6, 15.66 11.41 C23.45 6.21, 42.36 1.71, 49.1 0.15 C55.84 -1.41, 56.31 1.41, 56.1 2.05 M45.92 0.81 C54.18 -0.72, 63.83 0.07, 71.69 3.34 C79.56 6.62, 88.39 13.59, 93.11 20.46 C97.83 27.33, 100.56 36.8, 100 44.57 C99.44 52.33, 95.03 60.6, 89.75 67.05 C84.47 73.51, 76.5 80.21, 68.32 83.28 C60.15 86.34, 49.58 87.2, 40.7 85.46 C31.83 83.72, 21.8 78.5, 15.07 72.82 C8.34 67.15, 2.18 58.61, 0.32 51.42 C-1.53 44.22, 0.83 36.59, 3.93 29.67 C7.02 22.75, 12 14.75, 18.88 9.9 C25.77 5.04, 40.63 2, 45.23 0.54 C49.83 -0.93, 46.37 0.28, 46.49 1.12" stroke="#2dcd4d" stroke-width="2" fill="none"></path></g><g transform="translate(154.03216170361208 39.947961799571715) rotate(0 26.112499237060547 12.5)"><text x="26.112499237060547" y="0" font-family="Virgil, Segoe UI Emoji" font-size="20px" fill="#2dcd4d" text-anchor="middle" style="white-space: pre;" direction="ltr" dominant-baseline="text-before-edge">JSON</text></g><g stroke-linecap="round" transform="translate(550 10) rotate(0 50 42.5)"><path d="M49 -0.04 C57.28 -0.83, 67.73 2.36, 75.41 6.46 C83.08 10.56, 90.87 17.62, 95.05 24.58 C99.24 31.54, 101.74 40.69, 100.5 48.22 C99.25 55.75, 93.39 64.02, 87.59 69.78 C81.78 75.54, 74.23 80.36, 65.68 82.79 C57.12 85.23, 45.15 86.38, 36.26 84.4 C27.38 82.43, 18.17 76.63, 12.37 70.94 C6.58 65.25, 2.74 57.64, 1.48 50.26 C0.22 42.88, 1.42 33.87, 4.83 26.69 C8.24 19.5, 14.04 11.41, 21.95 7.12 C29.85 2.83, 46.45 1.95, 52.25 0.94 C58.06 -0.08, 56.75 0.59, 56.76 1.04 M63.1 0.39 C71.27 2.13, 80.16 9.56, 86.3 15.42 C92.43 21.27, 98.28 27.94, 99.89 35.51 C101.49 43.08, 99.64 53.92, 95.93 60.84 C92.21 67.76, 85.21 73.13, 77.61 77.01 C70.02 80.89, 59.4 83.58, 50.33 84.09 C41.27 84.61, 30.97 83.89, 23.21 80.1 C15.44 76.3, 7.36 68.61, 3.75 61.33 C0.14 54.04, 0.23 44.11, 1.55 36.38 C2.86 28.65, 5.99 20.67, 11.66 14.97 C17.34 9.26, 27.24 4.36, 35.6 2.17 C43.95 -0.02, 57.38 1.68, 61.78 1.85 C66.18 2.02, 62.22 2.53, 62.01 3.21" stroke="#2dcd4d" stroke-width="2" fill="none"></path></g><g transform="translate(574.032161703612 39.947961799571715) rotate(0 26.112499237060547 12.5)"><text x="26.112499237060547" y="0" font-family="Virgil, Segoe UI Emoji" font-size="20px" fill="#2dcd4d" text-anchor="middle" style="white-space: pre;" direction="ltr" dominant-baseline="text-before-edge">JSON</text></g><g stroke-linecap="round" transform="translate(170 130) rotate(0 60 40)"><path d="M20 0 M20 0 C51.04 0.76, 77.87 -0.17, 100 0 M20 0 C51.37 0.3, 83.98 0.94, 100 0 M100 0 C113.62 1.7, 121.12 7.12, 120 20 M100 0 C113.19 -0.91, 118.18 6.99, 120 20 M120 20 C118.56 31.26, 118.34 42.54, 120 60 M120 20 C120.35 29.06, 119.03 37.18, 120 60 M120 60 C119.04 73.36, 113.66 80.54, 100 80 M120 60 C120.98 75.03, 112.9 80.83, 100 80 M100 80 C78.58 80.92, 54.17 79.85, 20 80 M100 80 C78.16 79.22, 54.99 78.87, 20 80 M20 80 C7.69 78.17, -1.9 74.69, 0 60 M20 80 C4.48 79.12, 0.84 75.39, 0 60 M0 60 C0.23 47.74, 0.5 36.32, 0 20 M0 60 C0.71 48.84, -0.78 37.61, 0 20 M0 20 C-0.13 5.57, 5.52 1.63, 20 0 M0 20 C1.56 7.45, 5.8 -1.59, 20 0" stroke="#2dcd4d" stroke-width="2" fill="none"></path></g><g transform="translate(201.51250076293945 157.5) rotate(0 28.487499237060547 12.5)"><text x="28.487499237060547" y="0" font-family="Virgil, Segoe UI Emoji" font-size="20px" fill="#2dcd4d" text-anchor="middle" style="white-space: pre;" direction="ltr" dominant-baseline="text-before-edge">Parse</text></g><g stroke-linecap="round" transform="translate(490 130) rotate(0 60 40)"><path d="M20 0 M20 0 C49.61 -1.88, 79.47 1.13, 100 0 M20 0 C47.98 -0.71, 75.69 0.22, 100 0 M100 0 C112.97 -1.81, 118.93 7.69, 120 20 M100 0 C111.23 -2.19, 121.56 4.48, 120 20 M120 20 C120.35 29.19, 120.9 40.92, 120 60 M120 20 C119.77 31.79, 119.65 45.1, 120 60 M120 60 C119.41 71.37, 112.03 79.87, 100 80 M120 60 C118.74 72.02, 115.2 81.56, 100 80 M100 80 C74.7 78.68, 47.84 79.49, 20 80 M100 80 C75.12 78.81, 49.92 79.54, 20 80 M20 80 C7.15 80.11, 0.86 74.8, 0 60 M20 80 C5.52 78.61, -1.64 72.88, 0 60 M0 60 C1.53 45.58, -0.33 31.75, 0 20 M0 60 C0.48 50.34, 0.92 42.62, 0 20 M0 20 C1.72 8.43, 4.9 -1.52, 20 0 M0 20 C-1.48 7.09, 8.29 -0.45, 20 0" stroke="#2dcd4d" stroke-width="2" fill="none"></path></g><g transform="translate(526.25 157.5) rotate(0 23.75 12.5)"><text x="23.75" y="0" font-family="Virgil, Segoe UI Emoji" font-size="20px" fill="#2dcd4d" text-anchor="middle" style="white-space: pre;" direction="ltr" dominant-baseline="text-before-edge">Logic</text></g><g mask="url(#mask--ZrTLEKZcZDab8bv8GvuE)" stroke-linecap="round"><g transform="translate(291 170) rotate(0 99.00297447144987 -0.39350452945569714)"><path d="M-0.61 -0.48 C32.38 -0.49, 165.71 -0.31, 198.61 -0.35 M1.28 -1.78 C34.1 -1.58, 165.02 0.68, 197.99 1" stroke="#2dcd4d" stroke-width="2" fill="none"></path></g><g transform="translate(291 170) rotate(0 99.00297447144987 -0.39350452945569714)"><path d="M168.85 11.89 C179.19 5.53, 188.58 3.84, 196.89 -0.15 M169.28 10.17 C181.1 6.62, 191.83 3.27, 198.1 1.41" stroke="#2dcd4d" stroke-width="2" fill="none"></path></g><g transform="translate(291 170) rotate(0 99.00297447144987 -0.39350452945569714)"><path d="M169.13 -8.63 C179.32 -7.68, 188.6 -2.05, 196.89 -0.15 M169.56 -10.34 C181.41 -6.07, 192.03 -1.6, 198.1 1.41" stroke="#2dcd4d" stroke-width="2" fill="none"></path></g></g><mask id="mask--ZrTLEKZcZDab8bv8GvuE"><rect x="0" y="0" fill="#fff" width="589" height="270"></rect><rect x="329.45000076293945" y="157.5" fill="#000" width="121.0999984741211" height="25" opacity="1"></rect></mask><g transform="translate(329.45000076293945 157.5) rotate(0 60.55297370851042 12.106495470544303)"><text x="60.54999923706055" y="0" font-family="Virgil, Segoe UI Emoji" font-size="20px" fill="#2dcd4d" text-anchor="middle" style="white-space: pre;" direction="ltr" dominant-baseline="text-before-edge">ParsedInput</text></g><g stroke-linecap="round"><g transform="translate(110.99167668882444 173.28586783232993) rotate(0 29.174193465548257 -1.3148156590952738)"><path d="M1.02 -1.05 C10.58 -1.4, 48.91 -1.51, 58.25 -1.71 M0.09 1.01 C9.45 0.26, 47.53 -3.31, 57.44 -3.64" stroke="#2dcd4d" stroke-width="2" fill="none"></path></g><g transform="translate(110.99167668882444 173.28586783232993) rotate(0 29.174193465548257 -1.3148156590952738)"><path d="M29.14 8.51 C41.32 1.98, 50.31 -1.85, 56.64 -3.76 M30.3 8.83 C40.45 3.01, 51.07 -0.12, 58.05 -3.88" stroke="#2dcd4d" stroke-width="2" fill="none"></path></g><g transform="translate(110.99167668882444 173.28586783232993) rotate(0 29.174193465548257 -1.3148156590952738)"><path d="M27.8 -11.3 C40.54 -10.48, 50.03 -6.95, 56.64 -3.76 M28.97 -10.97 C39.44 -9.29, 50.57 -4.91, 58.05 -3.88" stroke="#2dcd4d" stroke-width="2" fill="none"></path></g></g><mask></mask><g stroke-linecap="round" transform="translate(10 130) rotate(0 50 42.5)"><path d="M30.89 3.03 C38.72 -0.31, 51.2 -1.49, 60.12 -0.15 C69.03 1.19, 77.86 5.75, 84.39 11.07 C90.92 16.39, 97.25 24.23, 99.3 31.76 C101.34 39.29, 99.59 48.79, 96.66 56.24 C93.72 63.69, 88.69 71.73, 81.69 76.45 C74.69 81.17, 63.78 83.76, 54.65 84.56 C45.51 85.36, 34.99 84.54, 26.9 81.23 C18.81 77.93, 10.73 71.49, 6.09 64.76 C1.45 58.03, -1.52 48.77, -0.94 40.86 C-0.37 32.94, 2.97 23.79, 9.54 17.26 C16.1 10.74, 32.5 4.27, 38.46 1.7 C44.42 -0.88, 45.08 1.28, 45.28 1.8 M63.44 2.47 C72.07 3.45, 80.03 7.72, 85.98 13.33 C91.94 18.95, 97.43 28.76, 99.17 36.15 C100.91 43.54, 99.73 50.86, 96.4 57.67 C93.08 64.47, 86.72 72.66, 79.22 76.97 C71.71 81.28, 60.66 83.07, 51.35 83.53 C42.05 83.99, 31.21 83.61, 23.38 79.72 C15.55 75.84, 8.35 67.17, 4.37 60.21 C0.4 53.26, -1.68 45.49, -0.48 37.99 C0.72 30.5, 5.71 21.32, 11.57 15.26 C17.43 9.2, 26.3 3.74, 34.68 1.63 C43.06 -0.47, 57.12 2.31, 61.88 2.61 C66.63 2.91, 63.28 3.07, 63.2 3.44" stroke="#2dcd4d" stroke-width="2" fill="none"></path></g><g transform="translate(34.032161703612076 159.94796179957171) rotate(0 26.112499237060547 12.5)"><text x="26.112499237060547" y="0" font-family="Virgil, Segoe UI Emoji" font-size="20px" fill="#2dcd4d" text-anchor="middle" style="white-space: pre;" direction="ltr" dominant-baseline="text-before-edge">JSON</text></g><g stroke-linecap="round"><g transform="translate(611 172.86150578416726) rotate(0 29.22351454504303 -0.9661701917267749)"><path d="M0.72 0.49 C10.57 0.27, 48.96 -0.24, 58.81 -0.62 M-0.37 -0.3 C9.35 -0.93, 47.85 -2.34, 57.85 -2.42" stroke="#2dcd4d" stroke-width="2" fill="none"></path></g><g transform="translate(611 172.86150578416726) rotate(0 29.22351454504303 -0.9661701917267749)"><path d="M31.27 8.28 C38.95 6.92, 44.5 0.34, 58.02 -3.43 M30.48 8.78 C40.11 3.85, 49.98 0.81, 58.14 -2.01" stroke="#2dcd4d" stroke-width="2" fill="none"></path></g><g transform="translate(611 172.86150578416726) rotate(0 29.22351454504303 -0.9661701917267749)"><path d="M30.78 -11.84 C38.7 -7.68, 44.39 -8.72, 58.02 -3.43 M29.98 -11.34 C39.89 -9.01, 49.95 -4.79, 58.14 -2.01" stroke="#2dcd4d" stroke-width="2" fill="none"></path></g></g><mask></mask><g stroke-linecap="round" transform="translate(669.362074625343 130) rotate(0 50 42.5)"><path d="M70.78 3.31 C79.05 6.02, 87.92 13.46, 92.63 19.98 C97.33 26.5, 99.02 34.91, 99.01 42.46 C99 50, 97.4 58.83, 92.56 65.24 C87.72 71.66, 78.24 77.68, 69.97 80.95 C61.7 84.22, 51.63 85.89, 42.92 84.86 C34.22 83.83, 24.51 79.99, 17.72 74.78 C10.94 69.58, 4.67 60.98, 2.21 53.63 C-0.25 46.27, 0.41 37.97, 2.95 30.66 C5.48 23.34, 10.61 14.65, 17.41 9.73 C24.21 4.8, 33.83 1.57, 43.75 1.1 C53.67 0.63, 70.25 4.99, 76.92 6.9 C83.6 8.8, 84.31 11.97, 83.8 12.51 M69.49 3.55 C77.89 5.9, 87.83 13.39, 92.71 19.96 C97.58 26.54, 99.07 35.62, 98.75 43.02 C98.43 50.42, 95.44 58.17, 90.78 64.37 C86.13 70.56, 78.91 76.89, 70.83 80.17 C62.76 83.45, 51.24 85.02, 42.33 84.03 C33.41 83.04, 24.03 79.29, 17.34 74.23 C10.65 69.17, 4.88 60.78, 2.18 53.65 C-0.52 46.52, -1.56 38.45, 1.14 31.44 C3.83 24.43, 11.34 16.98, 18.35 11.6 C25.36 6.22, 34.55 0.46, 43.17 -0.83 C51.79 -2.12, 65.46 2.76, 70.08 3.86 C74.7 4.95, 71.03 5.23, 70.9 5.75" stroke="#2dcd4d" stroke-width="2" fill="none"></path></g><g transform="translate(693.394236328955 159.94796179957171) rotate(0 26.112499237060547 12.5)"><text x="26.112499237060547" y="0" font-family="Virgil, Segoe UI Emoji" font-size="20px" fill="#2dcd4d" text-anchor="middle" style="white-space: pre;" direction="ltr" dominant-baseline="text-before-edge">JSON</text></g><g stroke-linecap="round"><g transform="translate(390 90) rotate(0 -60.21064638197424 20.261980880643222)"><path d="M0.44 -1.04 C-19.76 5.8, -100.66 33.26, -120.86 40.02 M-0.78 1.03 C-20.65 8.16, -99.02 34.97, -118.61 41.57" stroke="#2dcd4d" stroke-width="2" fill="none"></path></g></g><mask></mask><g stroke-linecap="round"><g transform="translate(390 90) rotate(0 60.10015181601045 20.490176616231906)"><path d="M-0.7 0.7 C19.43 7.64, 100.74 34.57, 120.9 40.95 M1.13 0.03 C21.17 6.71, 100.67 32.71, 120.43 39.33" stroke="#2dcd4d" stroke-width="2" fill="none"></path></g></g><mask></mask><g stroke-linecap="round" transform="translate(350 270) rotate(0 60 40)"><path d="M20 0 M20 0 C39.39 -2.14, 54.01 1.27, 100 0 M20 0 C41.76 0.49, 62.31 -0.72, 100 0 M100 0 C111.68 -1.47, 120.03 8.45, 120 20 M100 0 C111.21 1.99, 119.33 8, 120 20 M120 20 C119.42 29.78, 120.51 42.03, 120 60 M120 20 C120.89 32.53, 119.35 46.08, 120 60 M120 60 C118.26 73.81, 114.33 79.64, 100 80 M120 60 C120.07 73.1, 112.42 82.14, 100 80 M100 80 C70.4 78.31, 43.81 81.56, 20 80 M100 80 C80.44 80.36, 58.8 80.38, 20 80 M20 80 C6.36 80.09, 0.88 71.5, 0 60 M20 80 C7.38 78.73, 0.3 74.35, 0 60 M0 60 C-1.91 43.69, 0.15 29.72, 0 20 M0 60 C-0.39 48.4, -0.9 36.25, 0 20 M0 20 C-1.75 6.89, 7.4 0, 20 0 M0 20 C-0.15 6.65, 5.6 -0.06, 20 0" stroke="#2dcd4d" stroke-width="2" fill="none"></path></g><g transform="translate(382.13750076293945 297.5) rotate(0 27.862499237060547 12.5)"><text x="27.862499237060547" y="0" font-family="Virgil, Segoe UI Emoji" font-size="20px" fill="#2dcd4d" text-anchor="middle" style="white-space: pre;" direction="ltr" dominant-baseline="text-before-edge">Enrich</text></g><g stroke-linecap="round" transform="translate(670 270) rotate(0 60 40)"><path d="M20 0 M20 0 C36.72 0.54, 54.36 0.1, 100 0 M20 0 C45.86 -0.03, 73.38 1.59, 100 0 M100 0 C111.49 1.73, 119.42 7.83, 120 20 M100 0 C113.02 -0.77, 120.85 6.16, 120 20 M120 20 C120.54 29.58, 119.34 38.69, 120 60 M120 20 C118.8 31.05, 120.16 41.45, 120 60 M120 60 C120.06 73.13, 112.54 81.86, 100 80 M120 60 C121.06 75.41, 112.12 77.8, 100 80 M100 80 C80.19 79.91, 63.02 82.6, 20 80 M100 80 C75.79 80.07, 52.33 79.11, 20 80 M20 80 C7.29 78.9, 0.26 74.21, 0 60 M20 80 C8.24 80.28, -2.03 71.19, 0 60 M0 60 C0.07 51.2, -0.98 41.55, 0 20 M0 60 C-0.52 45.61, 0.72 31, 0 20 M0 20 C-0.13 6.65, 5.74 -0.05, 20 0 M0 20 C-0.59 6.32, 7.23 -1.68, 20 0" stroke="#2dcd4d" stroke-width="2" fill="none"></path></g><g transform="translate(706.25 297.5) rotate(0 23.75 12.5)"><text x="23.75" y="0" font-family="Virgil, Segoe UI Emoji" font-size="20px" fill="#2dcd4d" text-anchor="middle" style="white-space: pre;" direction="ltr" dominant-baseline="text-before-edge">Logic</text></g><g mask="url(#mask-cPvtnZ89ZB9_CPsVvWxbj)" stroke-linecap="round"><g transform="translate(471 310) rotate(0 98.39034277096857 -0.3268700033426626)"><path d="M0.48 0.4 C33.27 0.27, 164.75 -0.84, 197.51 -1.06 M-0.73 -0.43 C31.8 -0.44, 162.95 -0.14, 196.3 -0.07" stroke="#2dcd4d" stroke-width="2" fill="none"></path></g><g transform="translate(471 310) rotate(0 98.39034277096857 -0.3268700033426626)"><path d="M168.76 9.31 C176.56 4.67, 187.07 2.65, 198.08 -1.92 M167.95 9.8 C179.39 5.8, 189.1 2.4, 195.85 0.13" stroke="#2dcd4d" stroke-width="2" fill="none"></path></g><g transform="translate(471 310) rotate(0 98.39034277096857 -0.3268700033426626)"><path d="M168.8 -11.22 C176.55 -8.42, 187.05 -3, 198.08 -1.92 M168 -10.73 C179.36 -6.79, 189.05 -2.25, 195.85 0.13" stroke="#2dcd4d" stroke-width="2" fill="none"></path></g></g><mask id="mask-cPvtnZ89ZB9_CPsVvWxbj"><rect x="0" y="0" fill="#fff" width="769" height="410"></rect><rect x="504.5999984741211" y="297.5" fill="#000" width="130.8000030517578" height="25" opacity="1"></rect></mask><g transform="translate(504.5999984741211 297.5) rotate(0 64.79034429684748 12.173129996657337)"><text x="65.4000015258789" y="0" font-family="Virgil, Segoe UI Emoji" font-size="20px" fill="#2dcd4d" text-anchor="middle" style="white-space: pre;" direction="ltr" dominant-baseline="text-before-edge">EnrichedInput</text></g><g mask="url(#mask-09wPk6CtZuhXvjZg_KgQT)" stroke-linecap="round"><g transform="translate(150 310) rotate(0 99.01295174658296 0.7027882857655641)"><path d="M-0.99 -0.88 C32.26 -0.32, 165.87 1.76, 199.02 2.29 M0.69 1.27 C33.83 1.61, 164.82 0.86, 198.08 0.72" stroke="#2dcd4d" stroke-width="2" fill="none"></path></g><g transform="translate(150 310) rotate(0 99.01295174658296 0.7027882857655641)"><path d="M168.47 11.15 C179.09 6.82, 186.33 5.39, 199.24 0.46 M169.1 11.44 C176.96 8.61, 185.38 5.24, 198.78 0.43" stroke="#2dcd4d" stroke-width="2" fill="none"></path></g><g transform="translate(150 310) rotate(0 99.01295174658296 0.7027882857655641)"><path d="M168.37 -9.38 C178.84 -8.39, 186.1 -4.51, 199.24 0.46 M169 -9.08 C176.96 -6.43, 185.41 -4.33, 198.78 0.43" stroke="#2dcd4d" stroke-width="2" fill="none"></path></g></g><mask id="mask-09wPk6CtZuhXvjZg_KgQT"><rect x="0" y="0" fill="#fff" width="449" height="411.2180579570005"></rect><rect x="188.95000076293945" y="298.1090289785002" fill="#000" width="121.0999984741211" height="25" opacity="1"></rect></mask><g transform="translate(188.95000076293945 298.1090289785002) rotate(0 60.0629509836435 12.593759307265373)"><text x="60.54999923706055" y="0" font-family="Virgil, Segoe UI Emoji" font-size="20px" fill="#2dcd4d" text-anchor="middle" style="white-space: pre;" direction="ltr" dominant-baseline="text-before-edge">ParsedInput</text></g><g stroke-linecap="round"><g transform="translate(791 312.8615057841673) rotate(0 29.165509988590998 -0.46771512034734997)"><path d="M-0.35 0.7 C9.62 0.25, 48.74 -1.27, 58.68 -1.63 M1.67 0.01 C11.56 0.26, 48.13 -0.25, 57.65 -0.3" stroke="#2dcd4d" stroke-width="2" fill="none"></path></g><g transform="translate(791 312.8615057841673) rotate(0 29.165509988590998 -0.46771512034734997)"><path d="M31.25 9.76 C35.07 8.7, 41.02 4.13, 58.29 -1.2 M30.79 9.73 C38.04 7.25, 46.84 3.75, 58.14 -0.48" stroke="#2dcd4d" stroke-width="2" fill="none"></path></g><g transform="translate(791 312.8615057841673) rotate(0 29.165509988590998 -0.46771512034734997)"><path d="M31.06 -10.37 C35.09 -7.25, 41.08 -7.62, 58.29 -1.2 M30.6 -10.4 C38 -6.42, 46.87 -3.47, 58.14 -0.48" stroke="#2dcd4d" stroke-width="2" fill="none"></path></g></g><mask></mask><g stroke-linecap="round" transform="translate(849.362074625343 270) rotate(0 50 42.5)"><path d="M59.48 0.27 C68.1 1.24, 78.05 6.59, 84.49 12.03 C90.93 17.47, 96.03 25.71, 98.12 32.93 C100.22 40.14, 99.81 48.33, 97.05 55.32 C94.3 62.31, 88.54 69.88, 81.58 74.88 C74.62 79.87, 64.36 84.36, 55.29 85.28 C46.23 86.21, 35.27 84.04, 27.18 80.42 C19.09 76.81, 11.12 70.11, 6.75 63.58 C2.38 57.04, 0.43 48.87, 0.98 41.2 C1.52 33.53, 5.13 23.98, 10 17.53 C14.86 11.08, 21.38 5.02, 30.18 2.51 C38.97 0, 56.73 2.42, 62.75 2.49 C68.76 2.55, 66.35 2.24, 66.27 2.91 M49.94 0.07 C58.69 -0.74, 70.16 1.44, 77.84 5.45 C85.52 9.47, 92.39 16.84, 96.02 24.15 C99.66 31.47, 100.88 41.61, 99.66 49.36 C98.44 57.1, 94.87 65.2, 88.7 70.63 C82.52 76.06, 71.62 79.8, 62.59 81.92 C53.57 84.05, 43.08 85.32, 34.56 83.39 C26.04 81.45, 17.16 76.25, 11.48 70.3 C5.81 64.35, 1.76 55.14, 0.51 47.7 C-0.73 40.25, 0.47 32.31, 4.01 25.65 C7.56 18.98, 14.31 11.96, 21.79 7.71 C29.26 3.47, 44.04 1.31, 48.86 0.17 C53.68 -0.97, 50.52 0.17, 50.72 0.85" stroke="#2dcd4d" stroke-width="2" fill="none"></path></g><g transform="translate(873.394236328955 299.94796179957166) rotate(0 26.112499237060547 12.5)"><text x="26.112499237060547" y="0" font-family="Virgil, Segoe UI Emoji" font-size="20px" fill="#2dcd4d" text-anchor="middle" style="white-space: pre;" direction="ltr" dominant-baseline="text-before-edge">JSON</text></g><g stroke-linecap="round"><g transform="translate(550 210) rotate(0 -69.94176328181754 29.319302090993148)"><path d="M0.66 -0.35 C-22.53 9.35, -116.36 48.96, -139.73 59.14 M-0.45 -1.58 C-23.72 8.17, -117.27 50.16, -140.54 60.22" stroke="#2dcd4d" stroke-width="2" fill="none"></path></g></g><mask></mask><g stroke-linecap="round"><g transform="translate(550 210) rotate(0 90.04605658234101 29.74728618099354)"><path d="M0.25 0.16 C29.97 10.13, 149.07 49.35, 178.99 59.19 M-1.08 -0.81 C28.95 9.36, 151.17 50.15, 181.17 60.3" stroke="#2dcd4d" stroke-width="2" fill="none"></path></g></g><mask></mask></svg>